com\getjavajob\pasynkovn\dao\exceptions\DAOException.class
com\getjavajob\pasynkovn\dao\account\AccountDao.class
com\getjavajob\pasynkovn\dao\account\AccountDaoImpl.class
com\getjavajob\pasynkovn\dao\account\PhotoDao.class
